{
    "success": "true",
    "message": "successful!",
    "data": [
        {
            "schemeid": "283",
            "schemename": "TEACHER 301 - ST",
            "schemegroup": "TEACHER",
            "product": "Cash Loan",
            "maxamtfin": "100000000",
            "minamtfin": "5000000",
            "maxtenure": "12",
            "mintenure": "6",
            "paymentchannel": "N"
        },
        {
            "schemeid": "284",
            "schemename": "TEACHER 301 - MT",
            "schemegroup": "TEACHER",
            "product": "Cash Loan",
            "maxamtfin": "100000000",
            "minamtfin": "5000000",
            "maxtenure": "36",
            "mintenure": "13",
            "paymentchannel": "N"
        },
        {
            "schemeid": "285",
            "schemename": "TEACHER 302 - ST",
            "schemegroup": "TEACHER",
            "product": "Cash Loan",
            "maxamtfin": "100000000",
            "minamtfin": "5000000",
            "maxtenure": "12",
            "mintenure": "6",
            "paymentchannel": "N"
        },
        {
            "schemeid": "286",
            "schemename": "TEACHER 302 - MT",
            "schemegroup": "TEACHER",
            "product": "Cash Loan",
            "maxamtfin": "100000000",
            "minamtfin": "5000000",
            "maxtenure": "36",
            "mintenure": "13",
            "paymentchannel": "N"
        },
        {
            "schemeid": "287",
            "schemename": "TEACHER 303 - ST",
            "schemegroup": "TEACHER",
            "product": "Cash Loan",
            "maxamtfin": "100000000",
            "minamtfin": "5000000",
            "maxtenure": "12",
            "mintenure": "6",
            "paymentchannel": "N"
        },
        {
            "schemeid": "288",
            "schemename": "TEACHER 303 - MT",
            "schemegroup": "TEACHER",
            "product": "Cash Loan",
            "maxamtfin": "100000000",
            "minamtfin": "5000000",
            "maxtenure": "36",
            "mintenure": "13",
            "paymentchannel": "N"
        },
        {
            "schemeid": "289",
            "schemename": "HOSPITAL 304 - ST",
            "schemegroup": "HOSPITAL",
            "product": "Cash Loan",
            "maxamtfin": "100000000",
            "minamtfin": "5000000",
            "maxtenure": "12",
            "mintenure": "6",
            "paymentchannel": "N"
        },
        {
            "schemeid": "290",
            "schemename": "HOSPITAL 304 - MT",
            "schemegroup": "HOSPITAL",
            "product": "Cash Loan",
            "maxamtfin": "100000000",
            "minamtfin": "5000000",
            "maxtenure": "36",
            "mintenure": "13",
            "paymentchannel": "N"
        },
        {
            "schemeid": "291",
            "schemename": "HOSPITAL 305 - ST",
            "schemegroup": "HOSPITAL",
            "product": "Cash Loan",
            "maxamtfin": "100000000",
            "minamtfin": "5000000",
            "maxtenure": "12",
            "mintenure": "6",
            "paymentchannel": "N"
        },
        {
            "schemeid": "292",
            "schemename": "HOSPITAL 305 - MT",
            "schemegroup": "HOSPITAL",
            "product": "Cash Loan",
            "maxamtfin": "100000000",
            "minamtfin": "5000000",
            "maxtenure": "36",
            "mintenure": "13",
            "paymentchannel": "N"
        },
        {
            "schemeid": "767",
            "schemename": "FAST LOAN GOOD 507 - ST",
            "schemegroup": "NEW FAST LOAN",
            "product": "Cash Loan",
            "maxamtfin": "15000000",
            "minamtfin": "15000000",
            "maxtenure": "12",
            "mintenure": "12",
            "paymentchannel": "N"
        },
        {
            "schemeid": "775",
            "schemename": "LIFE INS STANDARD 314 - ST",
            "schemegroup": "SURROGATE",
            "product": "Cash Loan",
            "maxamtfin": "50000000",
            "minamtfin": "15000000",
            "maxtenure": "12",
            "mintenure": "6",
            "paymentchannel": "N"
        },
        {
            "schemeid": "776",
            "schemename": "LIFE INS STANDARD 314 - MT",
            "schemegroup": "SURROGATE",
            "product": "Cash Loan",
            "maxamtfin": "50000000",
            "minamtfin": "15000000",
            "maxtenure": "36",
            "mintenure": "13",
            "paymentchannel": "N"
        },
        {
            "schemeid": "777",
            "schemename": "LIFE INS GOOD 315 - ST",
            "schemegroup": "SURROGATE",
            "product": "Cash Loan",
            "maxamtfin": "70000000",
            "minamtfin": "15000000",
            "maxtenure": "12",
            "mintenure": "6",
            "paymentchannel": "N"
        },
        {
            "schemeid": "778",
            "schemename": "LIFE INS GOOD 315 - MT",
            "schemegroup": "SURROGATE",
            "product": "Cash Loan",
            "maxamtfin": "70000000",
            "minamtfin": "15000000",
            "maxtenure": "36",
            "mintenure": "13",
            "paymentchannel": "N"
        },
        {
            "schemeid": "737",
            "schemename": "EMPLOYEE AT 210 - ST",
            "schemegroup": "Employee Cash Loan",
            "product": "Cash Loan",
            "maxamtfin": "100000000",
            "minamtfin": "10000000",
            "maxtenure": "12",
            "mintenure": "6",
            "paymentchannel": "AT"
        },
        {
            "schemeid": "739",
            "schemename": "EMPLOYEE AT 210 - MT",
            "schemegroup": "Employee Cash Loan",
            "product": "Cash Loan",
            "maxamtfin": "100000000",
            "minamtfin": "10000000",
            "maxtenure": "36",
            "mintenure": "13",
            "paymentchannel": "AT"
        },
        {
            "schemeid": "741",
            "schemename": "EMPLOYEE NON-AT 211 - ST",
            "schemegroup": "Employee Cash Loan",
            "product": "Cash Loan",
            "maxamtfin": "70000000",
            "minamtfin": "5000000",
            "maxtenure": "12",
            "mintenure": "6",
            "paymentchannel": "N"
        },
        {
            "schemeid": "743",
            "schemename": "EMPLOYEE NON-AT 211 - MT",
            "schemegroup": "Employee Cash Loan",
            "product": "Cash Loan",
            "maxamtfin": "70000000",
            "minamtfin": "5000000",
            "maxtenure": "36",
            "mintenure": "13",
            "paymentchannel": "N"
        },
        {
            "schemeid": "749",
            "schemename": "EMPLOYEE NON-AT 213 - ST",
            "schemegroup": "Employee Cash Loan",
            "product": "Cash Loan",
            "maxamtfin": "50000000",
            "minamtfin": "5000000",
            "maxtenure": "12",
            "mintenure": "6",
            "paymentchannel": "N"
        },
        {
            "schemeid": "751",
            "schemename": "EMPLOYEE NON-AT 213 - MT",
            "schemegroup": "Employee Cash Loan",
            "product": "Cash Loan",
            "maxamtfin": "50000000",
            "minamtfin": "5000000",
            "maxtenure": "36",
            "mintenure": "13",
            "paymentchannel": "N"
        },
        {
            "schemeid": "721",
            "schemename": "EVN HIGH 311 - ST",
            "schemegroup": "SURROGATE",
            "product": "Cash Loan",
            "maxamtfin": "30000000",
            "minamtfin": "15000000",
            "maxtenure": "12",
            "mintenure": "6",
            "paymentchannel": "N"
        },
        {
            "schemeid": "723",
            "schemename": "EVN HIGH 311 - MT",
            "schemegroup": "SURROGATE",
            "product": "Cash Loan",
            "maxamtfin": "30000000",
            "minamtfin": "15000000",
            "maxtenure": "36",
            "mintenure": "13",
            "paymentchannel": "N"
        },
        {
            "schemeid": "919",
            "schemename": "UCCC NEW NORMAL L 326 - MT",
            "schemegroup": "SURROGATE",
            "product": "Cash Loan",
            "maxamtfin": "30000000",
            "minamtfin": "10000000",
            "maxtenure": "36",
            "mintenure": "18",
            "paymentchannel": "N"
        },
        {
            "schemeid": "887",
            "schemename": "CC VIP 320 - ST",
            "schemegroup": "SURROGATE",
            "product": "Cash Loan",
            "maxamtfin": "100000000",
            "minamtfin": "15000000",
            "maxtenure": "12",
            "mintenure": "6",
            "paymentchannel": "N"
        },
        {
            "schemeid": "888",
            "schemename": "CC VIP 320 - MT",
            "schemegroup": "SURROGATE",
            "product": "Cash Loan",
            "maxamtfin": "100000000",
            "minamtfin": "15000000",
            "maxtenure": "36",
            "mintenure": "13",
            "paymentchannel": "N"
        },
        {
            "schemeid": "889",
            "schemename": "CC GOOD 321 - ST",
            "schemegroup": "SURROGATE",
            "product": "Cash Loan",
            "maxamtfin": "100000000",
            "minamtfin": "15000000",
            "maxtenure": "12",
            "mintenure": "6",
            "paymentchannel": "N"
        },
        {
            "schemeid": "890",
            "schemename": "CC GOOD 321 - MT",
            "schemegroup": "SURROGATE",
            "product": "Cash Loan",
            "maxamtfin": "100000000",
            "minamtfin": "15000000",
            "maxtenure": "36",
            "mintenure": "13",
            "paymentchannel": "N"
        },
        {
            "schemeid": "1129",
            "schemename": "WHC 431 GOOD - MT - AT",
            "schemegroup": "Employee Cash Loan",
            "product": "Cash Loan",
            "maxamtfin": "100000000",
            "minamtfin": "20000000",
            "maxtenure": "48",
            "mintenure": "13",
            "paymentchannel": "AT"
        },
        {
            "schemeid": "1130",
            "schemename": "WHC CIVIL 432 NORMAL - ST - AT",
            "schemegroup": "Employee Cash Loan",
            "product": "Cash Loan",
            "maxamtfin": "70000000",
            "minamtfin": "20000000",
            "maxtenure": "12",
            "mintenure": "6",
            "paymentchannel": "AT"
        },
        {
            "schemeid": "1131",
            "schemename": "WHC CIVIL 432 NORMAL - MT - AT",
            "schemegroup": "Employee Cash Loan",
            "product": "Cash Loan",
            "maxamtfin": "70000000",
            "minamtfin": "20000000",
            "maxtenure": "48",
            "mintenure": "13",
            "paymentchannel": "AT"
        },
        {
            "schemeid": "1132",
            "schemename": "WHC CIVIL 433 GOOD - ST - AT",
            "schemegroup": "Employee Cash Loan",
            "product": "Cash Loan",
            "maxamtfin": "100000000",
            "minamtfin": "20000000",
            "maxtenure": "12",
            "mintenure": "6",
            "paymentchannel": "AT"
        },
        {
            "schemeid": "1133",
            "schemename": "WHC CIVIL 433 GOOD - MT - AT",
            "schemegroup": "Employee Cash Loan",
            "product": "Cash Loan",
            "maxamtfin": "100000000",
            "minamtfin": "20000000",
            "maxtenure": "48",
            "mintenure": "13",
            "paymentchannel": "AT"
        },
        {
            "schemeid": "1134",
            "schemename": "TS LEAD 434 HIGH SCORE - ST",
            "schemegroup": "LEAD CL",
            "product": "Cash Loan",
            "maxamtfin": "50000000",
            "minamtfin": "10000000",
            "maxtenure": "12",
            "mintenure": "6",
            "paymentchannel": "N"
        },
        {
            "schemeid": "1135",
            "schemename": "TS LEAD 434 HIGH SCORE - MT",
            "schemegroup": "LEAD CL",
            "product": "Cash Loan",
            "maxamtfin": "50000000",
            "minamtfin": "10000000",
            "maxtenure": "36",
            "mintenure": "13",
            "paymentchannel": "N"
        },
        {
            "schemeid": "1136",
            "schemename": "TS LEAD 435 MED SCORE - ST",
            "schemegroup": "LEAD CL",
            "product": "Cash Loan",
            "maxamtfin": "50000000",
            "minamtfin": "10000000",
            "maxtenure": "12",
            "mintenure": "6",
            "paymentchannel": "N"
        },
        {
            "schemeid": "1137",
            "schemename": "TS LEAD 435 MED SCORE - MT",
            "schemegroup": "LEAD CL",
            "product": "Cash Loan",
            "maxamtfin": "50000000",
            "minamtfin": "10000000",
            "maxtenure": "36",
            "mintenure": "13",
            "paymentchannel": "N"
        },
        {
            "schemeid": "1138",
            "schemename": "TS LEAD 434 HIGH SCORE_AT - ST",
            "schemegroup": "LEAD CL",
            "product": "Cash Loan",
            "maxamtfin": "50000000",
            "minamtfin": "10000000",
            "maxtenure": "12",
            "mintenure": "6",
            "paymentchannel": "AT"
        },
        {
            "schemeid": "1139",
            "schemename": "TS LEAD 434 HIGH SCORE_AT - MT",
            "schemegroup": "LEAD CL",
            "product": "Cash Loan",
            "maxamtfin": "50000000",
            "minamtfin": "10000000",
            "maxtenure": "36",
            "mintenure": "13",
            "paymentchannel": "AT"
        },
        {
            "schemeid": "1140",
            "schemename": "TS LEAD 435 MED SCORE_AT - ST",
            "schemegroup": "LEAD CL",
            "product": "Cash Loan",
            "maxamtfin": "50000000",
            "minamtfin": "10000000",
            "maxtenure": "12",
            "mintenure": "6",
            "paymentchannel": "AT"
        },
        {
            "schemeid": "1072",
            "schemename": "LIFE INS HIGH 330 - ST",
            "schemegroup": "SURROGATE",
            "product": "Cash Loan",
            "maxamtfin": "100000000",
            "minamtfin": "15000000",
            "maxtenure": "12",
            "mintenure": "6",
            "paymentchannel": "N"
        },
        {
            "schemeid": "1073",
            "schemename": "LIFE INS HIGH 330 - MT",
            "schemegroup": "SURROGATE",
            "product": "Cash Loan",
            "maxamtfin": "100000000",
            "minamtfin": "15000000",
            "maxtenure": "36",
            "mintenure": "13",
            "paymentchannel": "N"
        },
        {
            "schemeid": "1106",
            "schemename": "VMG A 340_AT - ST",
            "schemegroup": "LEAD CL",
            "product": "Cash Loan",
            "maxamtfin": "100000000",
            "minamtfin": "10000000",
            "maxtenure": "12",
            "mintenure": "6",
            "paymentchannel": "AT"
        },
        {
            "schemeid": "1107",
            "schemename": "VMG A 340_AT - MT",
            "schemegroup": "LEAD CL",
            "product": "Cash Loan",
            "maxamtfin": "100000000",
            "minamtfin": "10000000",
            "maxtenure": "36",
            "mintenure": "13",
            "paymentchannel": "AT"
        },
        {
            "schemeid": "1108",
            "schemename": "VMG B 341_NORMAL - ST",
            "schemegroup": "LEAD CL",
            "product": "Cash Loan",
            "maxamtfin": "25000000",
            "minamtfin": "25000000",
            "maxtenure": "12",
            "mintenure": "6",
            "paymentchannel": "N"
        },
        {
            "schemeid": "1109",
            "schemename": "VMG B 341_NORMAL - MT",
            "schemegroup": "LEAD CL",
            "product": "Cash Loan",
            "maxamtfin": "25000000",
            "minamtfin": "25000000",
            "maxtenure": "36",
            "mintenure": "13",
            "paymentchannel": "N"
        },
        {
            "schemeid": "1118",
            "schemename": "WHC 430 NORMAL - ST",
            "schemegroup": "Employee Cash Loan",
            "product": "Cash Loan",
            "maxamtfin": "70000000",
            "minamtfin": "20000000",
            "maxtenure": "12",
            "mintenure": "6",
            "paymentchannel": "N"
        },
        {
            "schemeid": "1119",
            "schemename": "WHC 430 NORMAL - MT",
            "schemegroup": "Employee Cash Loan",
            "product": "Cash Loan",
            "maxamtfin": "70000000",
            "minamtfin": "20000000",
            "maxtenure": "48",
            "mintenure": "13",
            "paymentchannel": "N"
        },
        {
            "schemeid": "1120",
            "schemename": "WHC 431 GOOD - ST",
            "schemegroup": "Employee Cash Loan",
            "product": "Cash Loan",
            "maxamtfin": "100000000",
            "minamtfin": "20000000",
            "maxtenure": "12",
            "mintenure": "6",
            "paymentchannel": "N"
        },
        {
            "schemeid": "1121",
            "schemename": "WHC 431 GOOD - MT",
            "schemegroup": "Employee Cash Loan",
            "product": "Cash Loan",
            "maxamtfin": "100000000",
            "minamtfin": "20000000",
            "maxtenure": "48",
            "mintenure": "13",
            "paymentchannel": "N"
        },
        {
            "schemeid": "1122",
            "schemename": "WHC CIVIL 432 NORMAL - ST",
            "schemegroup": "Employee Cash Loan",
            "product": "Cash Loan",
            "maxamtfin": "70000000",
            "minamtfin": "20000000",
            "maxtenure": "12",
            "mintenure": "6",
            "paymentchannel": "N"
        },
        {
            "schemeid": "1123",
            "schemename": "WHC CIVIL 432 NORMAL - MT",
            "schemegroup": "Employee Cash Loan",
            "product": "Cash Loan",
            "maxamtfin": "70000000",
            "minamtfin": "20000000",
            "maxtenure": "48",
            "mintenure": "13",
            "paymentchannel": "N"
        },
        {
            "schemeid": "1124",
            "schemename": "WHC CIVIL 433 GOOD - ST",
            "schemegroup": "Employee Cash Loan",
            "product": "Cash Loan",
            "maxamtfin": "100000000",
            "minamtfin": "20000000",
            "maxtenure": "12",
            "mintenure": "6",
            "paymentchannel": "N"
        },
        {
            "schemeid": "1125",
            "schemename": "WHC CIVIL 433 GOOD - MT",
            "schemegroup": "Employee Cash Loan",
            "product": "Cash Loan",
            "maxamtfin": "100000000",
            "minamtfin": "20000000",
            "maxtenure": "48",
            "mintenure": "13",
            "paymentchannel": "N"
        },
        {
            "schemeid": "1126",
            "schemename": "WHC 430 NORMAL - ST - AT",
            "schemegroup": "Employee Cash Loan",
            "product": "Cash Loan",
            "maxamtfin": "70000000",
            "minamtfin": "20000000",
            "maxtenure": "12",
            "mintenure": "6",
            "paymentchannel": "AT"
        },
        {
            "schemeid": "1127",
            "schemename": "WHC 430 NORMAL - MT - AT",
            "schemegroup": "Employee Cash Loan",
            "product": "Cash Loan",
            "maxamtfin": "70000000",
            "minamtfin": "20000000",
            "maxtenure": "48",
            "mintenure": "13",
            "paymentchannel": "AT"
        },
        {
            "schemeid": "1128",
            "schemename": "WHC 431 GOOD - ST - AT",
            "schemegroup": "Employee Cash Loan",
            "product": "Cash Loan",
            "maxamtfin": "100000000",
            "minamtfin": "20000000",
            "maxtenure": "12",
            "mintenure": "6",
            "paymentchannel": "AT"
        },
        {
            "schemeid": "1211",
            "schemename": "KIMAN CASH 8100 - ST",
            "schemegroup": "KIMAN CL",
            "product": "Cash Loan",
            "maxamtfin": "100000000",
            "minamtfin": "5000000",
            "maxtenure": "12",
            "mintenure": "1",
            "paymentchannel": "N"
        },
        {
            "schemeid": "1277",
            "schemename": "TS LEAD NEW 1434 HIGH SCORE - ST",
            "schemegroup": "LEAD CL",
            "product": "Cash Loan",
            "maxamtfin": "50000000",
            "minamtfin": "10000000",
            "maxtenure": "12",
            "mintenure": "6",
            "paymentchannel": "N"
        },
        {
            "schemeid": "1278",
            "schemename": "TS LEAD NEW 1434 HIGH SCORE - MT",
            "schemegroup": "LEAD CL",
            "product": "Cash Loan",
            "maxamtfin": "50000000",
            "minamtfin": "10000000",
            "maxtenure": "36",
            "mintenure": "13",
            "paymentchannel": "N"
        },
        {
            "schemeid": "1279",
            "schemename": "TS LEAD NEW 1435 MED SCORE - ST",
            "schemegroup": "LEAD CL",
            "product": "Cash Loan",
            "maxamtfin": "50000000",
            "minamtfin": "10000000",
            "maxtenure": "12",
            "mintenure": "6",
            "paymentchannel": "N"
        },
        {
            "schemeid": "1280",
            "schemename": "TS LEAD NEW 1435 MED SCORE - MT",
            "schemegroup": "LEAD CL",
            "product": "Cash Loan",
            "maxamtfin": "50000000",
            "minamtfin": "10000000",
            "maxtenure": "36",
            "mintenure": "13",
            "paymentchannel": "N"
        },
        {
            "schemeid": "1141",
            "schemename": "TS LEAD 435 MED SCORE_AT - MT",
            "schemegroup": "LEAD CL",
            "product": "Cash Loan",
            "maxamtfin": "50000000",
            "minamtfin": "10000000",
            "maxtenure": "36",
            "mintenure": "13",
            "paymentchannel": "AT"
        },
        {
            "schemeid": "1195",
            "schemename": "MOVI CASH 8000_AT - ST",
            "schemegroup": "MOVI CL",
            "product": "Cash Loan",
            "maxamtfin": "30000000",
            "minamtfin": "5000000",
            "maxtenure": "12",
            "mintenure": "6",
            "paymentchannel": "AT"
        },
        {
            "schemeid": "1196",
            "schemename": "MOVI CASH 8000_AT - MT",
            "schemegroup": "MOVI CL",
            "product": "Cash Loan",
            "maxamtfin": "30000000",
            "minamtfin": "5000000",
            "maxtenure": "36",
            "mintenure": "13",
            "paymentchannel": "AT"
        },
        {
            "schemeid": "1197",
            "schemename": "MOVI CASH 8000_SD - ST",
            "schemegroup": "MOVI CL",
            "product": "Cash Loan",
            "maxamtfin": "30000000",
            "minamtfin": "5000000",
            "maxtenure": "12",
            "mintenure": "6",
            "paymentchannel": "N"
        },
        {
            "schemeid": "1198",
            "schemename": "MOVI CASH 8000_SD - MT",
            "schemegroup": "MOVI CL",
            "product": "Cash Loan",
            "maxamtfin": "30000000",
            "minamtfin": "5000000",
            "maxtenure": "36",
            "mintenure": "13",
            "paymentchannel": "N"
        },
        {
            "schemeid": "1199",
            "schemename": "UCCC PROMO 334 - ST",
            "schemegroup": "SURROGATE",
            "product": "Cash Loan",
            "maxamtfin": "30000000",
            "minamtfin": "10000000",
            "maxtenure": "12",
            "mintenure": "6",
            "paymentchannel": "N"
        },
        {
            "schemeid": "1200",
            "schemename": "UCCC PROMO 334 - MT",
            "schemegroup": "SURROGATE",
            "product": "Cash Loan",
            "maxamtfin": "30000000",
            "minamtfin": "10000000",
            "maxtenure": "36",
            "mintenure": "13",
            "paymentchannel": "N"
        },
        {
            "schemeid": "1337",
            "schemename": "RETAILER STORE CONSUMER 901 ST",
            "schemegroup": "REOPEN LOAN",
            "product": "Cash Loan",
            "maxamtfin": "105500000",
            "minamtfin": "10000000",
            "maxtenure": "12",
            "mintenure": "6",
            "paymentchannel": "N"
        },
        {
            "schemeid": "1338",
            "schemename": "RETAILER STORE CONSUMER 901 MT",
            "schemegroup": "REOPEN LOAN",
            "product": "Cash Loan",
            "maxamtfin": "105500000",
            "minamtfin": "10000000",
            "maxtenure": "36",
            "mintenure": "13",
            "paymentchannel": "N"
        },
        {
            "schemeid": "1339",
            "schemename": "POS SHOP CONSUMER 902 ST",
            "schemegroup": "REOPEN LOAN",
            "product": "Cash Loan",
            "maxamtfin": "105500000",
            "minamtfin": "10000000",
            "maxtenure": "12",
            "mintenure": "6",
            "paymentchannel": "N"
        },
        {
            "schemeid": "1340",
            "schemename": "POS SHOP CONSUMER 902 MT",
            "schemegroup": "REOPEN LOAN",
            "product": "Cash Loan",
            "maxamtfin": "105500000",
            "minamtfin": "10000000",
            "maxtenure": "36",
            "mintenure": "13",
            "paymentchannel": "N"
        },
        {
            "schemeid": "1353",
            "schemename": "RETAILER STORE BUSINESS CORP 905 ST",
            "schemegroup": "REOPEN LOAN",
            "product": "Cash Loan",
            "maxamtfin": "300000000",
            "minamtfin": "100000000",
            "maxtenure": "12",
            "mintenure": "6",
            "paymentchannel": "N"
        },
        {
            "schemeid": "1354",
            "schemename": "RETAILER STORE BUSINESS CORP 905 MT",
            "schemegroup": "REOPEN LOAN",
            "product": "Cash Loan",
            "maxamtfin": "300000000",
            "minamtfin": "100000000",
            "maxtenure": "36",
            "mintenure": "13",
            "paymentchannel": "N"
        },
        {
            "schemeid": "1355",
            "schemename": "POS SHOP BUSINESS CORP 906 ST",
            "schemegroup": "REOPEN LOAN",
            "product": "Cash Loan",
            "maxamtfin": "300000000",
            "minamtfin": "100000000",
            "maxtenure": "12",
            "mintenure": "6",
            "paymentchannel": "N"
        },
        {
            "schemeid": "1356",
            "schemename": "POS SHOP BUSINESS CORP 906 MT",
            "schemegroup": "REOPEN LOAN",
            "product": "Cash Loan",
            "maxamtfin": "300000000",
            "minamtfin": "100000000",
            "maxtenure": "36",
            "mintenure": "13",
            "paymentchannel": "N"
        },
        {
            "schemeid": "1302",
            "schemename": "OK FINTECH CASH 8150 - ST",
            "schemegroup": "OK FINTECH",
            "product": "Cash Loan",
            "maxamtfin": "20000000",
            "minamtfin": "8000000",
            "maxtenure": "12",
            "mintenure": "3",
            "paymentchannel": "N"
        },
        {
            "schemeid": "1303",
            "schemename": "OK FINTECH CASH 8150 - MT",
            "schemegroup": "OK FINTECH",
            "product": "Cash Loan",
            "maxamtfin": "20000000",
            "minamtfin": "8000000",
            "maxtenure": "24",
            "mintenure": "13",
            "paymentchannel": "N"
        },
        {
            "schemeid": "1357",
            "schemename": "NICE LEAD HIGH SCORE 5006 - ST",
            "schemegroup": "NICE LEAD",
            "product": "Cash Loan",
            "maxamtfin": "50000000",
            "minamtfin": "10000000",
            "maxtenure": "12",
            "mintenure": "6",
            "paymentchannel": "N"
        },
        {
            "schemeid": "1358",
            "schemename": "NICE LEAD HIGH SCORE 5006_AT - ST",
            "schemegroup": "NICE LEAD",
            "product": "Cash Loan",
            "maxamtfin": "50000000",
            "minamtfin": "10000000",
            "maxtenure": "12",
            "mintenure": "6",
            "paymentchannel": "AT"
        },
        {
            "schemeid": "1359",
            "schemename": "NICE LEAD MED SCORE 5007 - ST",
            "schemegroup": "NICE LEAD",
            "product": "Cash Loan",
            "maxamtfin": "30000000",
            "minamtfin": "10000000",
            "maxtenure": "12",
            "mintenure": "6",
            "paymentchannel": "N"
        },
        {
            "schemeid": "1360",
            "schemename": "NICE LEAD MED SCORE 5007_AT - ST",
            "schemegroup": "NICE LEAD",
            "product": "Cash Loan",
            "maxamtfin": "30000000",
            "minamtfin": "10000000",
            "maxtenure": "12",
            "mintenure": "6",
            "paymentchannel": "AT"
        },
        {
            "schemeid": "1361",
            "schemename": "NICE LEAD HIGH SCORE 5006 - MT",
            "schemegroup": "NICE LEAD",
            "product": "Cash Loan",
            "maxamtfin": "50000000",
            "minamtfin": "10000000",
            "maxtenure": "36",
            "mintenure": "13",
            "paymentchannel": "N"
        },
        {
            "schemeid": "1362",
            "schemename": "NICE LEAD HIGH SCORE 5006_AT - MT",
            "schemegroup": "NICE LEAD",
            "product": "Cash Loan",
            "maxamtfin": "50000000",
            "minamtfin": "10000000",
            "maxtenure": "36",
            "mintenure": "13",
            "paymentchannel": "AT"
        },
        {
            "schemeid": "1363",
            "schemename": "NICE LEAD MED SCORE 5007 - MT",
            "schemegroup": "NICE LEAD",
            "product": "Cash Loan",
            "maxamtfin": "30000000",
            "minamtfin": "10000000",
            "maxtenure": "36",
            "mintenure": "13",
            "paymentchannel": "N"
        },
        {
            "schemeid": "1364",
            "schemename": "NICE LEAD MED SCORE 5007_AT - MT",
            "schemegroup": "NICE LEAD",
            "product": "Cash Loan",
            "maxamtfin": "30000000",
            "minamtfin": "10000000",
            "maxtenure": "36",
            "mintenure": "13",
            "paymentchannel": "AT"
        },
        {
            "schemeid": "1379",
            "schemename": "DIGIPAY CL 8082 - ST",
            "schemegroup": "DIGIPAY RISK FREE CL",
            "product": "Cash Loan",
            "maxamtfin": "30000000",
            "minamtfin": "5000000",
            "maxtenure": "12",
            "mintenure": "6",
            "paymentchannel": "N"
        },
        {
            "schemeid": "1380",
            "schemename": "DIGIPAY CL 8083 - MT",
            "schemegroup": "DIGIPAY RISK FREE CL",
            "product": "Cash Loan",
            "maxamtfin": "30000000",
            "minamtfin": "5000000",
            "maxtenure": "24",
            "mintenure": "13",
            "paymentchannel": "N"
        },
        {
            "schemeid": "1281",
            "schemename": "TS LEAD NEW 1434 HIGH SCORE_AT - ST",
            "schemegroup": "LEAD CL",
            "product": "Cash Loan",
            "maxamtfin": "50000000",
            "minamtfin": "10000000",
            "maxtenure": "12",
            "mintenure": "6",
            "paymentchannel": "AT"
        },
        {
            "schemeid": "1282",
            "schemename": "TS LEAD NEW 1434 HIGH SCORE_AT - MT",
            "schemegroup": "LEAD CL",
            "product": "Cash Loan",
            "maxamtfin": "50000000",
            "minamtfin": "10000000",
            "maxtenure": "36",
            "mintenure": "13",
            "paymentchannel": "AT"
        },
        {
            "schemeid": "1283",
            "schemename": "TS LEAD NEW 1435 MED SCORE_AT - ST",
            "schemegroup": "LEAD CL",
            "product": "Cash Loan",
            "maxamtfin": "50000000",
            "minamtfin": "10000000",
            "maxtenure": "12",
            "mintenure": "6",
            "paymentchannel": "AT"
        },
        {
            "schemeid": "1284",
            "schemename": "TS LEAD NEW 1435 MED SCORE_AT - MT",
            "schemegroup": "LEAD CL",
            "product": "Cash Loan",
            "maxamtfin": "50000000",
            "minamtfin": "10000000",
            "maxtenure": "36",
            "mintenure": "13",
            "paymentchannel": "AT"
        },
        {
            "schemeid": "1286",
            "schemename": "TIENNGAY UNSECURED CASH 8101 - MT",
            "schemegroup": "TIENNGAY CL",
            "product": "Cash Loan",
            "maxamtfin": "100000000",
            "minamtfin": "10000000",
            "maxtenure": "36",
            "mintenure": "3",
            "paymentchannel": "N"
        },
        {
            "schemeid": "1287",
            "schemename": "TIENNGAY SECURED CASH 8102 - MT",
            "schemegroup": "TIENNGAY CL",
            "product": "Cash Loan",
            "maxamtfin": "500000000",
            "minamtfin": "10000000",
            "maxtenure": "36",
            "mintenure": "3",
            "paymentchannel": "N"
        },
        {
            "schemeid": "1288",
            "schemename": "LIFE INS NORMAL 335-MT",
            "schemegroup": "SURROGATE",
            "product": "Cash Loan",
            "maxamtfin": "50000000",
            "minamtfin": "15000000",
            "maxtenure": "36",
            "mintenure": "12",
            "paymentchannel": "N"
        },
        {
            "schemeid": "1289",
            "schemename": "LIFE INS NORMAL 335-ST",
            "schemegroup": "SURROGATE",
            "product": "Cash Loan",
            "maxamtfin": "50000000",
            "minamtfin": "15000000",
            "maxtenure": "12",
            "mintenure": "6",
            "paymentchannel": "N"
        },
        {
            "schemeid": "1309",
            "schemename": "FAST LOAN LEAKAGE 506 - ST",
            "schemegroup": "NEW FAST LOAN",
            "product": "Cash Loan",
            "maxamtfin": "8000000",
            "minamtfin": "8000000",
            "maxtenure": "9",
            "mintenure": "9",
            "paymentchannel": "N"
        },
        {
            "schemeid": "1293",
            "schemename": "CIC LEAD HIGH SCORE 5001 - ST",
            "schemegroup": "LEAD CIC",
            "product": "Cash Loan",
            "maxamtfin": "50000000",
            "minamtfin": "10000000",
            "maxtenure": "12",
            "mintenure": "6",
            "paymentchannel": "N"
        },
        {
            "schemeid": "1294",
            "schemename": "CIC LEAD HIGH SCORE 5001- AT - ST",
            "schemegroup": "LEAD CIC",
            "product": "Cash Loan",
            "maxamtfin": "50000000",
            "minamtfin": "10000000",
            "maxtenure": "12",
            "mintenure": "6",
            "paymentchannel": "AT"
        },
        {
            "schemeid": "1295",
            "schemename": "CIC LEAD MED SCORE 5002 - ST",
            "schemegroup": "LEAD CIC",
            "product": "Cash Loan",
            "maxamtfin": "30000000",
            "minamtfin": "10000000",
            "maxtenure": "12",
            "mintenure": "6",
            "paymentchannel": "N"
        },
        {
            "schemeid": "1296",
            "schemename": "CIC LEAD MED SCORE 5002 - AT - ST",
            "schemegroup": "LEAD CIC",
            "product": "Cash Loan",
            "maxamtfin": "30000000",
            "minamtfin": "10000000",
            "maxtenure": "12",
            "mintenure": "6",
            "paymentchannel": "AT"
        },
        {
            "schemeid": "1297",
            "schemename": "CIC LEAD HIGH SCORE 5001 - MT",
            "schemegroup": "LEAD CIC",
            "product": "Cash Loan",
            "maxamtfin": "50000000",
            "minamtfin": "10000000",
            "maxtenure": "36",
            "mintenure": "13",
            "paymentchannel": "N"
        },
        {
            "schemeid": "1298",
            "schemename": "CIC LEAD HIGH SCORE 5001 - AT- MT",
            "schemegroup": "LEAD CIC",
            "product": "Cash Loan",
            "maxamtfin": "50000000",
            "minamtfin": "10000000",
            "maxtenure": "36",
            "mintenure": "13",
            "paymentchannel": "AT"
        },
        {
            "schemeid": "1299",
            "schemename": "CIC LEAD MED SCORE 5002 - MT",
            "schemegroup": "LEAD CIC",
            "product": "Cash Loan",
            "maxamtfin": "30000000",
            "minamtfin": "10000000",
            "maxtenure": "36",
            "mintenure": "13",
            "paymentchannel": "N"
        },
        {
            "schemeid": "1300",
            "schemename": "CIC LEAD MED SCORE 5002 - AT - MT",
            "schemegroup": "LEAD CIC",
            "product": "Cash Loan",
            "maxamtfin": "30000000",
            "minamtfin": "10000000",
            "maxtenure": "36",
            "mintenure": "13",
            "paymentchannel": "AT"
        },
        {
            "schemeid": "1349",
            "schemename": "RETAILER STORE BUSINESS 903 ST",
            "schemegroup": "REOPEN LOAN",
            "product": "Cash Loan",
            "maxamtfin": "316500000",
            "minamtfin": "100000000",
            "maxtenure": "12",
            "mintenure": "6",
            "paymentchannel": "N"
        },
        {
            "schemeid": "1350",
            "schemename": "RETAILER STORE BUSINESS 903 MT",
            "schemegroup": "REOPEN LOAN",
            "product": "Cash Loan",
            "maxamtfin": "316500000",
            "minamtfin": "100000000",
            "maxtenure": "36",
            "mintenure": "13",
            "paymentchannel": "N"
        },
        {
            "schemeid": "1351",
            "schemename": "POS SHOP BUSINESS 904 ST",
            "schemegroup": "REOPEN LOAN",
            "product": "Cash Loan",
            "maxamtfin": "316500000",
            "minamtfin": "100000000",
            "maxtenure": "12",
            "mintenure": "6",
            "paymentchannel": "N"
        },
        {
            "schemeid": "1352",
            "schemename": "POS SHOP BUSINESS 904 MT",
            "schemegroup": "REOPEN LOAN",
            "product": "Cash Loan",
            "maxamtfin": "316500000",
            "minamtfin": "100000000",
            "maxtenure": "36",
            "mintenure": "13",
            "paymentchannel": "N"
        },
        {
            "schemeid": "1381",
            "schemename": "MF FM 10000 - ST",
            "schemegroup": "MY FINANCE",
            "product": "Cash Loan",
            "maxamtfin": "35000000",
            "minamtfin": "5000000",
            "maxtenure": "12",
            "mintenure": "6",
            "paymentchannel": "N"
        },
        {
            "schemeid": "1382",
            "schemename": "MF FM 10000 - MT ",
            "schemegroup": "MY FINANCE",
            "product": "Cash Loan",
            "maxamtfin": "35000000",
            "minamtfin": "5000000",
            "maxtenure": "36",
            "mintenure": "13",
            "paymentchannel": "N"
        },
        {
            "schemeid": "1315",
            "schemename": "VEGA LEAD HIGH SCORE 6041 - ST",
            "schemegroup": "VEGA LEAD",
            "product": "Cash Loan",
            "maxamtfin": "50000000",
            "minamtfin": "10000000",
            "maxtenure": "12",
            "mintenure": "6",
            "paymentchannel": "N"
        },
        {
            "schemeid": "1316",
            "schemename": "VEGA LEAD HIGH SCORE 6041 - AT  - ST",
            "schemegroup": "VEGA LEAD",
            "product": "Cash Loan",
            "maxamtfin": "50000000",
            "minamtfin": "10000000",
            "maxtenure": "12",
            "mintenure": "6",
            "paymentchannel": "AT"
        },
        {
            "schemeid": "1317",
            "schemename": "VEGA LEAD HIGH SCORE 6041 - MT",
            "schemegroup": "VEGA LEAD",
            "product": "Cash Loan",
            "maxamtfin": "50000000",
            "minamtfin": "10000000",
            "maxtenure": "36",
            "mintenure": "13",
            "paymentchannel": "N"
        },
        {
            "schemeid": "1318",
            "schemename": "VEGA LEAD HIGH SCORE 6041 - AT  - MT",
            "schemegroup": "VEGA LEAD",
            "product": "Cash Loan",
            "maxamtfin": "50000000",
            "minamtfin": "10000000",
            "maxtenure": "36",
            "mintenure": "13",
            "paymentchannel": "AT"
        },
        {
            "schemeid": "1319",
            "schemename": "VEGA LEAD MEDIUM SCORE 6042 - ST",
            "schemegroup": "VEGA LEAD",
            "product": "Cash Loan",
            "maxamtfin": "30000000",
            "minamtfin": "10000000",
            "maxtenure": "12",
            "mintenure": "6",
            "paymentchannel": "N"
        },
        {
            "schemeid": "1320",
            "schemename": "VEGA LEAD MEDIUM SCORE 6042 - AT  - ST",
            "schemegroup": "VEGA LEAD",
            "product": "Cash Loan",
            "maxamtfin": "30000000",
            "minamtfin": "10000000",
            "maxtenure": "12",
            "mintenure": "6",
            "paymentchannel": "AT"
        },
        {
            "schemeid": "1321",
            "schemename": "VEGA LEAD MEDIUM SCORE 6042 - MT",
            "schemegroup": "VEGA LEAD",
            "product": "Cash Loan",
            "maxamtfin": "30000000",
            "minamtfin": "10000000",
            "maxtenure": "36",
            "mintenure": "13",
            "paymentchannel": "N"
        },
        {
            "schemeid": "1322",
            "schemename": "VEGA LEAD MEDIUM SCORE 6042 - AT  - MT",
            "schemegroup": "VEGA LEAD",
            "product": "Cash Loan",
            "maxamtfin": "30000000",
            "minamtfin": "10000000",
            "maxtenure": "36",
            "mintenure": "13",
            "paymentchannel": "AT"
        },
        {
            "schemeid": "1456",
            "schemename": "UCCC Normal C 350 - ST",
            "schemegroup": "SURROGATE",
            "product": "Cash Loan",
            "maxamtfin": "30000000",
            "minamtfin": "10000000",
            "maxtenure": "12",
            "mintenure": "12",
            "paymentchannel": "N"
        },
        {
            "schemeid": "1455",
            "schemename": "UCCC Normal A 350 - MT",
            "schemegroup": "SURROGATE",
            "product": "Cash Loan",
            "maxamtfin": "30000000",
            "minamtfin": "10000000",
            "maxtenure": "36",
            "mintenure": "24",
            "paymentchannel": "N"
        }
    ],
    "msgName": "getSchemes",
    "trNo": "EMCIfromDataEntryMD22080210331245501059"
}